^E:\GIVEMESPACE\OPENGL\PROJECTS\ASCII ROGULIKE\ASCII ROGULIKE\MAIN.CPP
/c /ZI /nologo /W3 /WX- /sdl /Od /Oy- /D _MBCS /Gm /EHsc /RTC1 /MDd /GS /fp:precise /Zc:wchar_t /Zc:forScope /Fo"DEBUG\\" /Fd"DEBUG\VC120.PDB" /Gd /TP /analyze- E:\GIVEMESPACE\OPENGL\PROJECTS\ASCII ROGULIKE\ASCII ROGULIKE\MAIN.CPP
^E:\GIVEMESPACE\OPENGL\PROJECTS\ASCII ROGULIKE\ASCII ROGULIKE\GAMESYSTEM.CPP
/c /ZI /nologo /W3 /WX- /sdl /Od /Oy- /D _MBCS /Gm /EHsc /RTC1 /MDd /GS /fp:precise /Zc:wchar_t /Zc:forScope /Fo"DEBUG\\" /Fd"DEBUG\VC120.PDB" /Gd /TP /analyze- E:\GIVEMESPACE\OPENGL\PROJECTS\ASCII ROGULIKE\ASCII ROGULIKE\GAMESYSTEM.CPP
^E:\GIVEMESPACE\OPENGL\PROJECTS\ASCII ROGULIKE\ASCII ROGULIKE\LEVEL.CPP
/c /ZI /nologo /W3 /WX- /sdl /Od /Oy- /D _MBCS /Gm /EHsc /RTC1 /MDd /GS /fp:precise /Zc:wchar_t /Zc:forScope /Fo"DEBUG\\" /Fd"DEBUG\VC120.PDB" /Gd /TP /analyze- E:\GIVEMESPACE\OPENGL\PROJECTS\ASCII ROGULIKE\ASCII ROGULIKE\LEVEL.CPP
^E:\GIVEMESPACE\OPENGL\PROJECTS\ASCII ROGULIKE\ASCII ROGULIKE\PLAYER.CPP
/c /ZI /nologo /W3 /WX- /sdl /Od /Oy- /D _MBCS /Gm /EHsc /RTC1 /MDd /GS /fp:precise /Zc:wchar_t /Zc:forScope /Fo"DEBUG\\" /Fd"DEBUG\VC120.PDB" /Gd /TP /analyze- E:\GIVEMESPACE\OPENGL\PROJECTS\ASCII ROGULIKE\ASCII ROGULIKE\PLAYER.CPP
^E:\GIVEMESPACE\OPENGL\PROJECTS\ASCII ROGULIKE\ASCII ROGULIKE\ENEMY.CPP
/c /ZI /nologo /W3 /WX- /sdl /Od /Oy- /D _MBCS /Gm /EHsc /RTC1 /MDd /GS /fp:precise /Zc:wchar_t /Zc:forScope /Fo"DEBUG\\" /Fd"DEBUG\VC120.PDB" /Gd /TP /analyze- E:\GIVEMESPACE\OPENGL\PROJECTS\ASCII ROGULIKE\ASCII ROGULIKE\ENEMY.CPP
